
{
  "video": {
    "autoplay": false,
    "duration": 600,
    "dimensions": {
      "width": 400,
      "height": 600,
      "unit": "px"
    }
  },
  "hotspot": {
    "enable": true,
    "templates": [
      {
        "text": "<span class=\"ivp-hotspot-icon\"></span><div class=\"ivp-hotspot-title\" role=\"button\" aria-live=\"polite\"><div><span>${text}</span></div></div>",
        "_id": "554d0a9fe9385609007497cb",
        "id": 0
      }
    ],
    "items": [
      {
        "enabled": true,
        "actions": [
          {
            "id": 0,
            "type": "card",
            "target": 1
          }
        ],
        "templateId": "554d0a9fe9385609007497cb",
        "template": 0,
        "data": {
          "title": "14906081",
          "text": "Large Spinner"
        },
        "time": {
          "start": 4.5,
          "end": 7
        },
        "notification": false,
        "position": {
          "coords": [
            {
              "x": 9.487179487179487,
              "y": 39.40774487471526
            }
          ],
          "unit": "%"
        },
        "animate": {
          "duration": {
            "start": 0.5,
            "end": 0.25
          },
          "from": {
            "y": 10,
            "opacity": 0,
            "scale": 0.85
          },
          "config": [
            {
              "y": 0,
              "opacity": 1,
              "scale": 1
            },
            {
              "opacity": 0,
              "y": 10
            }
          ]
        },
        "card": "568ab28cbeb946090028eaed",
        "id": 0,
        "title": "14906081"
      },
      {
        "enabled": true,
        "actions": [
          {
            "id": 0,
            "type": "card",
            "target": 7
          }
        ],
        "templateId": "554d0a9fe9385609007497cb",
        "template": 0,
        "data": {
          "title": "12446081",
          "text": "Hanging Organizer"
        },
        "time": {
          "start": 7,
          "end": 10.5
        },
        "notification": false,
        "position": {
          "coords": [
            {
              "x": 11.153846153846155,
              "y": 76.08200455580865
            }
          ],
          "unit": "%"
        },
        "animate": {
          "duration": {
            "start": 0.5,
            "end": 0.25
          },
          "from": {
            "y": 10,
            "opacity": 0,
            "scale": 0.85
          },
          "config": [
            {
              "y": 0,
              "opacity": 1,
              "scale": 1
            },
            {
              "opacity": 0,
              "y": 10
            }
          ]
        },
        "card": "561ec905b55b360900895e78",
        "id": 1,
        "title": "12446081"
      },
      {
        "enabled": true,
        "actions": [
          {
            "id": 0,
            "type": "card",
            "target": 6
          }
        ],
        "templateId": "554d0a9fe9385609007497cb",
        "template": 0,
        "data": {
          "title": "14971344",
          "text": "Medium Zip Cosmetic"
        },
        "time": {
          "start": 8.5,
          "end": 10.5
        },
        "notification": false,
        "position": {
          "coords": [
            {
              "x": 30.384615384615383,
              "y": 15.717539863325742
            }
          ],
          "unit": "%"
        },
        "animate": {
          "duration": {
            "start": 0.5,
            "end": 0.25
          },
          "from": {
            "y": 10,
            "opacity": 0,
            "scale": 0.85
          },
          "config": [
            {
              "y": 0,
              "opacity": 1,
              "scale": 1
            },
            {
              "opacity": 0,
              "y": 10
            }
          ]
        },
        "card": "561ec92ab55b360900895e81",
        "id": 2,
        "title": "14971344"
      },
      {
        "enabled": true,
        "actions": [
          {
            "id": 0,
            "type": "card",
            "target": 11
          }
        ],
        "templateId": "554d0a9fe9385609007497cb",
        "template": 0,
        "data": {
          "title": "14906081-2",
          "text": "Large Spinner"
        },
        "time": {
          "start": 12.6,
          "end": 15.9
        },
        "notification": false,
        "position": {
          "coords": [
            {
              "x": 34.87179487179487,
              "y": 45.78587699316628
            }
          ],
          "unit": "%"
        },
        "animate": {
          "duration": {
            "start": 0.5,
            "end": 0.25
          },
          "from": {
            "y": 10,
            "opacity": 0,
            "scale": 0.85
          },
          "config": [
            {
              "y": 0,
              "opacity": 1,
              "scale": 1
            },
            {
              "opacity": 0,
              "y": 10
            }
          ]
        },
        "card": "561ec6bfb55b360900895e54",
        "id": 3,
        "title": "14906081-2"
      },
      {
        "enabled": true,
        "actions": [
          {
            "id": 0,
            "type": "card",
            "target": 5
          }
        ],
        "templateId": "554d0a9fe9385609007497cb",
        "template": 0,
        "data": {
          "title": "14977081",
          "text": "Going Places Garment Bag"
        },
        "time": {
          "start": 18.4,
          "end": 21.3
        },
        "notification": false,
        "position": {
          "coords": [
            {
              "x": 40.12820512820513,
              "y": 54.89749430523918
            }
          ],
          "unit": "%"
        },
        "animate": {
          "duration": {
            "start": 0.5,
            "end": 0.25
          },
          "from": {
            "y": 10,
            "opacity": 0,
            "scale": 0.85
          },
          "config": [
            {
              "y": 0,
              "opacity": 1,
              "scale": 1
            },
            {
              "opacity": 0,
              "y": 10
            }
          ]
        },
        "card": "561ec94ab55b360900895e8a",
        "id": 4,
        "title": "14977081"
      },
      {
        "enabled": true,
        "actions": [
          {
            "id": 0,
            "type": "card",
            "target": 9
          }
        ],
        "templateId": "554d0a9fe9385609007497cb",
        "template": 0,
        "data": {
          "title": "14981344",
          "text": "Hybrid Hardshell Case for iPhone 6"
        },
        "time": {
          "start": 21.3,
          "end": 23.2
        },
        "notification": false,
        "position": {
          "coords": [
            {
              "x": 50.641025641025635,
              "y": 75.17084282460137
            }
          ],
          "unit": "%"
        },
        "animate": {
          "duration": {
            "start": 0.5,
            "end": 0.25
          },
          "from": {
            "y": 10,
            "opacity": 0,
            "scale": 0.85
          },
          "config": [
            {
              "y": 0,
              "opacity": 1,
              "scale": 1
            },
            {
              "opacity": 0,
              "y": 10
            }
          ]
        },
        "card": "561ec8b9b55b360900895e66",
        "id": 5,
        "title": "14981344"
      },
      {
        "enabled": true,
        "actions": [
          {
            "id": 0,
            "type": "card",
            "target": 3
          }
        ],
        "templateId": "554d0a9fe9385609007497cb",
        "template": 0,
        "data": {
          "title": "15083236",
          "text": "Delicate Openwork Earrings"
        },
        "time": {
          "start": 23.25,
          "end": 26.2
        },
        "notification": false,
        "position": {
          "coords": [
            {
              "x": 73.07692307692307,
              "y": 44.191343963553535
            }
          ],
          "unit": "%"
        },
        "animate": {
          "duration": {
            "start": 0.5,
            "end": 0.25
          },
          "from": {
            "y": 10,
            "opacity": 0,
            "scale": 0.85
          },
          "config": [
            {
              "y": 0,
              "opacity": 1,
              "scale": 1
            },
            {
              "opacity": 0,
              "y": 10
            }
          ]
        },
        "card": "561ec9dbb55b360900895e9c",
        "id": 6,
        "title": "15083236"
      },
      {
        "enabled": true,
        "actions": [
          {
            "id": 0,
            "type": "card",
            "target": 8
          }
        ],
        "templateId": "554d0a9fe9385609007497cb",
        "template": 0,
        "data": {
          "title": "14679393",
          "text": "Flip Fold Tablet Case"
        },
        "time": {
          "start": 27.4,
          "end": 30.15
        },
        "notification": false,
        "position": {
          "coords": [
            {
              "x": 29.102564102564102,
              "y": 34.85193621867881
            }
          ],
          "unit": "%"
        },
        "animate": {
          "duration": {
            "start": 0.5,
            "end": 0.25
          },
          "from": {
            "y": 10,
            "opacity": 0,
            "scale": 0.85
          },
          "config": [
            {
              "y": 0,
              "opacity": 1,
              "scale": 1
            },
            {
              "opacity": 0,
              "y": 10
            }
          ]
        },
        "card": "561ec8e2b55b360900895e6f",
        "id": 7,
        "title": "14679393"
      },
      {
        "enabled": true,
        "actions": [
          {
            "id": 0,
            "type": "card",
            "target": 4
          }
        ],
        "templateId": "554d0a9fe9385609007497cb",
        "template": 0,
        "data": {
          "title": "15417297",
          "text": "Kit Sunglasses"
        },
        "time": {
          "start": 27.4,
          "end": 30.15
        },
        "notification": false,
        "position": {
          "coords": [
            {
              "x": 74.23076923076923,
              "y": 43.50797266514806
            }
          ],
          "unit": "%"
        },
        "animate": {
          "duration": {
            "start": 0.5,
            "end": 0.25
          },
          "from": {
            "y": 10,
            "opacity": 0,
            "scale": 0.85
          },
          "config": [
            {
              "y": 0,
              "opacity": 1,
              "scale": 1
            },
            {
              "opacity": 0,
              "y": 10
            }
          ]
        },
        "card": "561ec9b3b55b360900895e93",
        "id": 8,
        "title": "15417297"
      },
      {
        "enabled": true,
        "actions": [
          {
            "id": 0,
            "type": "card",
            "target": 9
          }
        ],
        "templateId": "554d0a9fe9385609007497cb",
        "template": 0,
        "data": {
          "title": "14981344",
          "text": "Hybrid Hardshell Case for iPhone 6"
        },
        "time": {
          "start": 30.15,
          "end": 33.6
        },
        "notification": false,
        "position": {
          "coords": [
            {
              "x": 66.92307692307692,
              "y": 30.979498861047844
            }
          ],
          "unit": "%"
        },
        "animate": {
          "duration": {
            "start": 0.5,
            "end": 0.25
          },
          "from": {
            "y": 10,
            "opacity": 0,
            "scale": 0.85
          },
          "config": [
            {
              "y": 0,
              "opacity": 1,
              "scale": 1
            },
            {
              "opacity": 0,
              "y": 10
            }
          ]
        },
        "card": "561ec8b9b55b360900895e66",
        "id": 9,
        "title": "14981344"
      },
      {
        "enabled": true,
        "actions": [
          {
            "id": 0,
            "type": "card",
            "target": 10
          }
        ],
        "templateId": "554d0a9fe9385609007497cb",
        "template": 0,
        "data": {
          "title": "15382284",
          "text": "Smartphone Wristlet for iPhone 6"
        },
        "time": {
          "start": 30.15,
          "end": 33.6
        },
        "notification": false,
        "position": {
          "coords": [
            {
              "x": 11.282051282051285,
              "y": 72.66514806378133
            }
          ],
          "unit": "%"
        },
        "animate": {
          "duration": {
            "start": 0.5,
            "end": 0.25
          },
          "from": {
            "y": 10,
            "opacity": 0,
            "scale": 0.85
          },
          "config": [
            {
              "y": 0,
              "opacity": 1,
              "scale": 1
            },
            {
              "opacity": 0,
              "y": 10
            }
          ]
        },
        "card": "561ec7c3b55b360900895e5d",
        "id": 10,
        "title": "15382284"
      },
      {
        "enabled": true,
        "actions": [
          {
            "id": 0,
            "type": "card",
            "target": 8
          }
        ],
        "templateId": "554d0a9fe9385609007497cb",
        "template": 0,
        "data": {
          "title": "14679393",
          "text": "Flip Fold Tablet Case"
        },
        "time": {
          "start": 33.6,
          "end": 38.2
        },
        "notification": false,
        "position": {
          "coords": [
            {
              "x": 46.53846153846154,
              "y": 32.11845102505694
            }
          ],
          "unit": "%"
        },
        "animate": {
          "duration": {
            "start": 0.5,
            "end": 0.25
          },
          "from": {
            "y": 10,
            "opacity": 0,
            "scale": 0.85
          },
          "config": [
            {
              "y": 0,
              "opacity": 1,
              "scale": 1
            },
            {
              "opacity": 0,
              "y": 10
            }
          ]
        },
        "card": "561ec8e2b55b360900895e6f",
        "id": 11,
        "title": "14679393"
      },
      {
        "enabled": true,
        "actions": [
          {
            "id": 0,
            "type": "card",
            "target": 12
          }
        ],
        "templateId": "554d0a9fe9385609007497cb",
        "template": 0,
        "data": {
          "title": "15306386",
          "text": "Quilted Stella Satchel"
        },
        "time": {
          "start": 43.5,
          "end": 46.6
        },
        "notification": false,
        "position": {
          "coords": [
            {
              "x": 71.53846153846153,
              "y": 48.747152619589976
            }
          ],
          "unit": "%"
        },
        "animate": {
          "duration": {
            "start": 0.5,
            "end": 0.25
          },
          "from": {
            "y": 10,
            "opacity": 0,
            "scale": 0.85
          },
          "config": [
            {
              "y": 0,
              "opacity": 1,
              "scale": 1
            },
            {
              "opacity": 0,
              "y": 10
            }
          ]
        },
        "card": "561ec246b55b360900895e4b",
        "id": 12,
        "title": "15306386"
      },
      {
        "enabled": true,
        "actions": [
          {
            "id": 0,
            "type": "card",
            "target": 0
          }
        ],
        "templateId": "554d0a9fe9385609007497cb",
        "template": 0,
        "data": {
          "title": "14640344",
          "text": "Soft Fringe Scarf in Rosewood"
        },
        "time": {
          "start": 38.2,
          "end": 42
        },
        "notification": false,
        "position": {
          "coords": [
            {
              "x": 66.53846153846153,
              "y": 48.747152619589976
            }
          ],
          "unit": "%"
        },
        "animate": {
          "duration": {
            "start": 0.5,
            "end": 0.25
          },
          "from": {
            "y": 10,
            "opacity": 0,
            "scale": 0.85
          },
          "config": [
            {
              "y": 0,
              "opacity": 1,
              "scale": 1
            },
            {
              "opacity": 0,
              "y": 10
            }
          ]
        },
        "card": "568acb12beb946090028eaf7",
        "id": 13,
        "title": "14640344"
      },
      {
        "enabled": true,
        "actions": [
          {
            "id": 0,
            "type": "card",
            "target": 4
          }
        ],
        "templateId": "554d0a9fe9385609007497cb",
        "template": 0,
        "data": {
          "title": "15417297",
          "text": "Kit Sunglasses"
        },
        "time": {
          "start": 47.5,
          "end": 49.5
        },
        "notification": false,
        "position": {
          "coords": [
            {
              "x": 53.07692307692308,
              "y": 20.956719817767656
            }
          ],
          "unit": "%"
        },
        "animate": {
          "duration": {
            "start": 0.5,
            "end": 0.25
          },
          "from": {
            "y": 10,
            "opacity": 0,
            "scale": 0.85
          },
          "config": [
            {
              "y": 0,
              "opacity": 1,
              "scale": 1
            },
            {
              "opacity": 0,
              "y": 10
            }
          ]
        },
        "card": "561ec9b3b55b360900895e93",
        "id": 14,
        "title": "15417297"
      },
      {
        "enabled": true,
        "actions": [
          {
            "id": 0,
            "type": "card",
            "target": 2
          }
        ],
        "templateId": "554d0a9fe9385609007497cb",
        "template": 0,
        "data": {
          "title": "15337481236",
          "text": "Micro-Stud Ella Tote"
        },
        "time": {
          "start": 49.7,
          "end": 52.7
        },
        "notification": false,
        "position": {
          "coords": [
            {
              "x": 57.692307692307686,
              "y": 82.46013667425967
            }
          ],
          "unit": "%"
        },
        "animate": {
          "duration": {
            "start": 0.5,
            "end": 0.25
          },
          "from": {
            "y": 10,
            "opacity": 0,
            "scale": 0.85
          },
          "config": [
            {
              "y": 0,
              "opacity": 1,
              "scale": 1
            },
            {
              "opacity": 0,
              "y": 10
            }
          ]
        },
        "card": "561ecb53b55b360900895ef6",
        "id": 15,
        "title": "15337481236"
      }
    ]
  },
  "card": {
    "enabled": true,
    "templates": [
      {
        "text": "<div class=\"ivp-card--medium\"><div class=\"ivp-card-content\"><div class=\"ivp-container\"><div class=\"ivp-row\"><div class=\"ivp-col-12 ivp-col-pull-gutters ivp-card-image\"><img src=\"${image}\"></div></div><div class=\"ivp-row\"><div class=\"ivp-col-12 ivp-card-text\"><h3>${title}</h3><p class=\"ivp-card-price\">${price}</p><div class=\"ivp-card-ctas\"><a class=\"ivp-card-cta ivp-card-cta--primary\" data-product-id=\"${productId}\" href=\"${ctaprimarylink}\" target=\"_blank\">${ctaprimarytext}</a><a class=\"ivp-card-cta ivp-card-cta--secondary\" href=\"${ctasecondarylink}\" target=\"_blank\">${ctasecondarytext}</a></div><p>${text}</p></div></div></div></div></div>",
        "_id": "562e7a885443ae0900ec631e",
        "id": 0
      }
    ],
    "items": [
      {
        "_id": "568acb12beb946090028eaf7",
        "title": "VB-14640344",
        "template": 0,
        "data": {
          "image": "//invodo-ixd-production.s3.amazonaws.com/ivp-experiences/ivp-customer-verabradley/images/14640344.png",
          "title": "Soft Fringe Scarf in&nbsp;Rosewood",
          "price": "",
          "productId": "SOFT_FRINGE_SCARF_ROSEWOOD",
          "ctaprimarylink": "",
          "ctaprimarytext": "ADD TO BAG",
          "ctasecondarylink": "http://www.verabradley.com/product/soft-fringe-scarf/rosewood/1003743_203340.uts",
          "ctasecondarytext": "SHOP NOW",
          "text": "This soft scarf will showcase your style to the world! Eyelash fringe softens the edges of this beautiful, vibrantly colored fashion accent."
        },
        "size": "medium",
        "animate": {
          "duration": {
            "start": 0.3,
            "end": 0.3
          },
          "from": {
            "opacity": 0,
            "top": "50%",
            "right": 0
          },
          "config": [
            {
              "y": "-50%",
              "opacity": 1
            },
            {
              "opacity": 0,
              "y": "-54%"
            }
          ]
        },
        "id": 0,
        "position": {
          "x": "0",
          "y": "-54%"
        }
      },
      {
        "_id": "568ab28cbeb946090028eaed",
        "title": "Large Spinner 14906081",
        "template": 0,
        "data": {
          "image": "//invodo-ixd-production.s3.amazonaws.com/ivp-experiences/ivp-customer-verabradley-2/images/14906081.png",
          "title": "Large Spinner",
          "price": "",
          "productId": "",
          "ctaprimarylink": "",
          "ctaprimarytext": "ADD TO BAG",
          "ctasecondarylink": "http://www.verabradley.com/product/large-spinner-rolling-luggage/classic-black/1003894_201893.uts?N=50005",
          "ctasecondarytext": "SHOP NOW",
          "text": "This much-loved travel piece is lightweight and features swivel wheels and a telescoping handle. Plus, this travel companion has outside zip pockets and an adjustable compression straps inside."
        },
        "size": "medium",
        "animate": {
          "duration": {
            "start": 0.3,
            "end": 0.3
          },
          "from": {
            "opacity": 0,
            "top": "50%",
            "right": 0
          },
          "config": [
            {
              "y": "-50%",
              "opacity": 1
            },
            {
              "opacity": 0,
              "y": "-54%"
            }
          ]
        },
        "id": 1,
        "position": {
          "x": "0",
          "y": "-54%"
        }
      },
      {
        "_id": "561ecb53b55b360900895ef6",
        "title": "VB-15337481236",
        "template": 0,
        "data": {
          "image": "//ixd.invodo.com/ivp-experiences/ivp-customer-verabradley/images/15337481236.png",
          "title": "Micro-Stud Ella Tote",
          "price": "",
          "ctaprimarylink": "",
          "ctaprimarytext": "ADD TO BAG",
          "ctasecondarylink": "http://www.verabradley.com/product/micro-stud-ella-tote/black-with-gold-tone/1004115_203760.uts",
          "ctasecondarytext": "SHOP NOW",
          "text": "Two large slips and a zip pocket provide organization under the breakaway zip top and a hidden magnetic closure pocket at the top seam keeps keys or a phone close by.",
          "productId": "MICRO-STUD_ELLA_TOTE"
        },
        "size": "medium",
        "animate": {
          "duration": {
            "start": 0.3,
            "end": 0.3
          },
          "from": {
            "opacity": 0,
            "top": "50%",
            "right": 0
          },
          "config": [
            {
              "y": "-50%",
              "opacity": 1
            },
            {
              "opacity": 0,
              "y": "-54%"
            }
          ]
        },
        "id": 2,
        "position": {
          "x": "0",
          "y": "-54%"
        }
      },
      {
        "_id": "561ec9dbb55b360900895e9c",
        "title": "VB-15083236",
        "template": 0,
        "data": {
          "image": "//ixd.invodo.com/ivp-experiences/ivp-customer-verabradley/images/15083236.png",
          "title": "Delicate Openwork Earrings",
          "price": "",
          "ctaprimarylink": "",
          "ctaprimarytext": "ADD TO BAG",
          "ctasecondarylink": "http://www.verabradley.com/product/delicate-openwork-earrings/gold-tone/1003918_201561.uts",
          "ctasecondarytext": "SHOP NOW",
          "text": "Delicate filigree disks dangle from these feminine earrings.Earring posts are nickel safe.",
          "productId": "DELICATE_OPENWORK_EARRINGS"
        },
        "size": "medium",
        "animate": {
          "duration": {
            "start": 0.3,
            "end": 0.3
          },
          "from": {
            "opacity": 0,
            "top": "50%",
            "right": 0
          },
          "config": [
            {
              "y": "-50%",
              "opacity": 1
            },
            {
              "opacity": 0,
              "y": "-54%"
            }
          ]
        },
        "id": 3,
        "position": {
          "x": "0",
          "y": "-54%"
        }
      },
      {
        "_id": "561ec9b3b55b360900895e93",
        "title": "VB-15417297",
        "template": 0,
        "data": {
          "image": "//ixd.invodo.com/ivp-experiences/ivp-customer-verabradley/images/15417539.png",
          "title": "Kit Sunglasses",
          "price": "",
          "ctaprimarylink": "",
          "ctaprimarytext": "ADD TO BAG",
          "ctasecondarylink": "http://www.verabradley.com/product/kit-sunglasses/marrakesh/1003856_201465.uts",
          "ctasecondarytext": "SHOP NOW",
          "text": "These classic pilot aviators sport a splash of Vera Bradley color. Includes a drawstring fabric case that doubles as a cleaning cloth.",
          "productId": "KIT_SUNGLASSES"
        },
        "size": "medium",
        "animate": {
          "duration": {
            "start": 0.3,
            "end": 0.3
          },
          "from": {
            "opacity": 0,
            "top": "50%",
            "right": 0
          },
          "config": [
            {
              "y": "-50%",
              "opacity": 1
            },
            {
              "opacity": 0,
              "y": "-54%"
            }
          ]
        },
        "id": 4,
        "position": {
          "x": "0",
          "y": "-54%"
        }
      },
      {
        "_id": "561ec94ab55b360900895e8a",
        "title": "VB-14977081",
        "template": 0,
        "data": {
          "image": "//ixd.invodo.com/ivp-experiences/ivp-customer-verabradley/images/14977081.png",
          "title": "Going Places Garment&nbsp;Bag",
          "price": "",
          "ctaprimarylink": "",
          "ctaprimarytext": "ADD TO BAG",
          "ctasecondarylink": "http://www.verabradley.com/product/going-places-garment-bag/classic-black/1004048_202649.uts",
          "ctasecondarytext": "SHOP NOW",
          "text": "The Going Places Garment bag is perfect to keep hanging clothes neat and clean while traveling. An exterior pocket keeps small accessories handy.",
          "productId": "GOING_PLACES_GARMENT_BAG"
        },
        "size": "medium",
        "animate": {
          "duration": {
            "start": 0.3,
            "end": 0.3
          },
          "from": {
            "opacity": 0,
            "top": "50%",
            "right": 0
          },
          "config": [
            {
              "y": "-50%",
              "opacity": 1
            },
            {
              "opacity": 0,
              "y": "-54%"
            }
          ]
        },
        "id": 5,
        "position": {
          "x": "0",
          "y": "-54%"
        }
      },
      {
        "_id": "561ec92ab55b360900895e81",
        "title": "VB-14971344",
        "template": 0,
        "data": {
          "image": "//ixd.invodo.com/ivp-experiences/ivp-customer-verabradley/images/14971344.png",
          "title": "Medium Zip Cosmetic",
          "price": "",
          "ctaprimarylink": "",
          "ctaprimarytext": "ADD TO BAG",
          "ctasecondarylink": "http://www.verabradley.com/product/medium-zip-cosmetic-bag/rosewood/1003899_203426.uts",
          "ctasecondarytext": "SHOP NOW",
          "text": "This classic zip-top cosmetic bag is perfect for travel or on a vanity table. The material easily wipes clean.",
          "productId": "MEDIUM_COSMETIC_CASE"
        },
        "size": "medium",
        "animate": {
          "duration": {
            "start": 0.3,
            "end": 0.3
          },
          "from": {
            "opacity": 0,
            "top": "50%",
            "right": 0
          },
          "config": [
            {
              "y": "-50%",
              "opacity": 1
            },
            {
              "opacity": 0,
              "y": "-54%"
            }
          ]
        },
        "id": 6,
        "position": {
          "x": "0",
          "y": "-54%"
        }
      },
      {
        "_id": "561ec905b55b360900895e78",
        "title": "VB-12446081",
        "template": 0,
        "data": {
          "image": "//ixd.invodo.com/ivp-experiences/ivp-customer-verabradley/images/12446081.png",
          "title": "Hanging Organizer",
          "price": "",
          "ctaprimarylink": "",
          "ctaprimarytext": "ADD TO BAG",
          "ctasecondarylink": "http://www.verabradley.com/product/hanging-travel-organizer/classic-black/1001755_176934.uts",
          "ctasecondarytext": "SHOP NOW",
          "text": "Lotions, powders and sprays all have a home here, thanks to the roomy, gusseted bottom pocket. It's ideal for slipping things into your suitcase or hanging it near the vanity.",
          "productId": "HANGING_ORGANIZER"
        },
        "size": "medium",
        "animate": {
          "duration": {
            "start": 0.3,
            "end": 0.3
          },
          "from": {
            "opacity": 0,
            "top": "50%",
            "right": 0
          },
          "config": [
            {
              "y": "-50%",
              "opacity": 1
            },
            {
              "opacity": 0,
              "y": "-54%"
            }
          ]
        },
        "id": 7,
        "position": {
          "x": "0",
          "y": "-54%"
        }
      },
      {
        "_id": "561ec8e2b55b360900895e6f",
        "title": "VB-14679393",
        "template": 0,
        "data": {
          "image": "//ixd.invodo.com/ivp-experiences/ivp-customer-verabradley/images/14679393.png",
          "title": "Flip Fold Tablet Case",
          "price": "",
          "ctaprimarylink": "",
          "ctaprimarytext": "ADD TO BAG",
          "ctasecondarylink": "http://www.verabradley.com/product/flip-fold-tablet-case/black-white-studs/1003846_203343.uts",
          "ctasecondarytext": "SHOP NOW",
          "text": "This case has both style and function. The back of the case snaps onto the tablet while the magnetic cover folds back into an easel for hands free use.",
          "productId": "FLIP_FOLD_TABLET_CASE"
        },
        "size": "medium",
        "animate": {
          "duration": {
            "start": 0.3,
            "end": 0.3
          },
          "from": {
            "opacity": 0,
            "top": "50%",
            "right": 0
          },
          "config": [
            {
              "y": "-50%",
              "opacity": 1
            },
            {
              "opacity": 0,
              "y": "-54%"
            }
          ]
        },
        "id": 8,
        "position": {
          "x": "0",
          "y": "-54%"
        }
      },
      {
        "_id": "561ec8b9b55b360900895e66",
        "title": "VB-14981344",
        "template": 0,
        "data": {
          "image": "//ixd.invodo.com/ivp-experiences/ivp-customer-verabradley/images/14981344.png",
          "title": "Hybrid Hardshell Case for iPhone 6",
          "price": "",
          "ctaprimarylink": "",
          "ctaprimarytext": "ADD TO BAG",
          "ctasecondarylink": "http://www.verabradley.com/product/hybrid-hardshell-phone-case-for-iphone-6/rosewood/1003891_203438.uts",
          "ctasecondarytext": "SHOP NOW",
          "text": "This colorful case offers a premium polycarbonate frame and a rubber surround that, together, provide great protection. It is a perfect fit for the iPhone 6.",
          "productId": "HYBRID_HARDSHELL_CASE_FOR_IPHONE_6"
        },
        "size": "medium",
        "animate": {
          "duration": {
            "start": 0.3,
            "end": 0.3
          },
          "from": {
            "opacity": 0,
            "top": "50%",
            "right": 0
          },
          "config": [
            {
              "y": "-50%",
              "opacity": 1
            },
            {
              "opacity": 0,
              "y": "-54%"
            }
          ]
        },
        "id": 9,
        "position": {
          "x": "0",
          "y": "-54%"
        }
      },
      {
        "_id": "561ec7c3b55b360900895e5d",
        "title": "VB-15382284",
        "template": 0,
        "data": {
          "image": "//ixd.invodo.com/ivp-experiences/ivp-customer-verabradley/images/15382284.png",
          "title": "Smartphone Wristlet for iPhone 6",
          "price": "",
          "ctaprimarylink": "",
          "ctaprimarytext": "ADD TO BAG",
          "ctasecondarylink": "http://www.verabradley.com/product/smartphone-wristlet-for-iphone-6/alpine-floral/1004182_203626.uts",
          "ctasecondarytext": "SHOP NOW",
          "text": "This now holds an iPhone 6! Inside, there are numerous card slips, a bill compartment and an ID window, plus two slip pockets. The exterior also features a zip coin compartment.",
          "productId": "SMARTPHONE_WRISTLET_FOR_IPHONE_6"
        },
        "size": "medium",
        "animate": {
          "duration": {
            "start": 0.3,
            "end": 0.3
          },
          "from": {
            "opacity": 0,
            "top": "50%",
            "right": 0
          },
          "config": [
            {
              "y": "-50%",
              "opacity": 1
            },
            {
              "opacity": 0,
              "y": "-54%"
            }
          ]
        },
        "id": 10,
        "position": {
          "x": "0",
          "y": "-54%"
        }
      },
      {
        "_id": "561ec6bfb55b360900895e54",
        "title": "VB-14906081",
        "template": 0,
        "data": {
          "image": "//ixd.invodo.com/ivp-experiences/ivp-customer-verabradley/images/14906081.png",
          "title": "Large Spinner",
          "price": "",
          "ctaprimarylink": "",
          "ctaprimarytext": "ADD TO BAG",
          "ctasecondarylink": "http://www.verabradley.com/product/large-spinner-rolling-luggage/classic-black/1003894_201893.uts?N=50005",
          "ctasecondarytext": "SHOP NOW",
          "text": "This much-loved travel piece is lightweight and features swivel wheels and a telescoping handle. Plus, this travel companion has outside zip pockets and an adjustable compression straps inside.",
          "productId": "27_SPINNER"
        },
        "size": "medium",
        "animate": {
          "duration": {
            "start": 0.3,
            "end": 0.3
          },
          "from": {
            "opacity": 0,
            "top": "50%",
            "right": 0
          },
          "config": [
            {
              "y": "-50%",
              "opacity": 1
            },
            {
              "opacity": 0,
              "y": "-54%"
            }
          ]
        },
        "id": 11,
        "position": {
          "x": "0",
          "y": "-54%"
        }
      },
      {
        "_id": "561ec246b55b360900895e4b",
        "title": "VB-15306386",
        "template": 0,
        "data": {
          "image": "//ixd.invodo.com/ivp-experiences/ivp-customer-verabradley/images/15306386.png",
          "title": "Quilted Stella Satchel",
          "price": "",
          "ctaprimarylink": "",
          "ctaprimarytext": "ADD TO BAG",
          "ctasecondarylink": "http://www.verabradley.com/product/quilted-stella-satchel/aubergine/1004116_203540.uts",
          "ctasecondarytext": "SHOP NOW",
          "text": "This silhouette is offered in a quilted leather construction, the pushlock closure accents this stylish satchel. Carry as a hand-held bag or use the detachable strap and carry as a shoulder bag.",
          "productId": "QUILTED_STELLA_SATCHEL"
        },
        "size": "medium",
        "animate": {
          "duration": {
            "start": 0.3,
            "end": 0.3
          },
          "from": {
            "opacity": 0,
            "top": "50%",
            "right": 0
          },
          "config": [
            {
              "y": "-50%",
              "opacity": 1
            },
            {
              "opacity": 0,
              "y": "-54%"
            }
          ]
        },
        "id": 12,
        "position": {
          "x": "0",
          "y": "-54%"
        }
      }
    ]
  },
  "poster": {
    "templates": [
      {
        "id": 1,
        "text": "<div class=\"ivp-btn ivp-btn--big-play\" role=\"button\" aria-live=\"polite\" tabindex=\"0\"><div><span>Play</span></div></div>"
      }
    ],
    "items": [
      {
        "id": 1,
        "enabled": true,
        "template": 1,
        "data": {
          "image": ""
        }
      }
    ]
  }
}
